2813    1435255022.38
2814    1435255022.39
2815    1435255023.39
2813    1435255024.39
2814    1435255024.39
2815    1435255025.4
2813    1435255026.39
2814    1435255026.39
2815    1435255027.4
2813    1435255028.39
2814    1435255028.39
2815    1435255029.4
2813    1435255030.39
2814    1435255030.4
2815    1435255031.4
2813    1435255032.39
2814    1435255032.4
2815    1435255033.4
2813    1435255034.39
2814    1435255034.4
2815    1435255035.4
2813    1435255036.4
2814    1435255036.4
2815    1435255037.41
2813    1435255038.4
2814    1435255038.4
2815    1435255039.41
2813    1435255040.4
2814    1435255040.4
2815    1435255041.41
2813    1435255042.4
2814    1435255042.41
2815    1435255043.41
2813    1435255044.4
2814    1435255044.41
2815    1435255045.41
2813    1435255046.4
2814    1435255046.41
2815    1435255047.41
2813    1435255048.41
2814    1435255048.41
2815    1435255049.42
2813    1435255050.41
2814    1435255050.41
2815    1435255051.42
